tk@noc:~/www/checker.dcp24.ru$ ls -la
total 48
drwxr-xr-x 11 tk   tk   4096 2013-02-07 15:41 .
drwxr-xr-x 10 tk   tk   4096 2014-02-10 12:37 ..
-rwxr-xr-x  1 tk   tk    144 2013-02-07 15:51 1.pl
drwxr-xr-x  3 tk   tk   4096 2012-10-30 14:51 bin
drwxr-xr-x  2 tk   tk   4096 2012-10-30 14:51 conf
drwxr-xr-x  7 tk   tk   4096 2012-10-31 13:10 data
drwxr-xr-x  6 tk   tk   4096 2012-11-09 09:54 lib
drwxr-xr-x  2 tk   tk   4096 2012-11-21 14:22 log
drwxr-xr-x  4 root root 4096 2012-11-08 13:47 mnt
drwxr-xr-x  2 tk   tk   4096 2012-10-31 12:19 script
drwxr-xr-x  2 tk   tk   4096 2012-12-05 09:30 tmp
drwxr-xr-x  5 tk   tk   4096 2012-10-30 14:51 tmpl
tk@noc:~/www/checker.dcp24.ru$ 